Capa de Transaccion/codigo/CapaTransferencia/test.vcd
$date
	Wed Nov 20 11:38:29 2019
$end
$version
	Icarus Verilog
$end
$timescale
	10ps
$end
$scope module BUF $end
$var wire 1 ! A $end
$var wire 1 " Y $end
$upscope $end
$scope module DFF $end
$var wire 1 # C $end
$var wire 1 $ D $end
$var reg 1 % Q $end
$upscope $end
$scope module DFFSR $end
$var wire 1 & C $end
$var wire 1 ' D $end
$var wire 1 ( R $end
$var wire 1 ) S $end
$var reg 1 * Q $end
$upscope $end
$scope module NAND $end
$var wire 1 + A $end
$var wire 1 , B $end
$var wire 1 - Y $end
$upscope $end
$scope module NOR $end
$var wire 1 . A $end
$var wire 1 / B $end
$var wire 1 0 Y $end
$upscope $end
$scope module NOT $end
$var wire 1 1 A $end
$var wire 1 2 Y $end
$upscope $end
$scope module banco_pruebas $end
$var wire 1 3 wr7 $end
$var wire 1 4 wr6 $end
$var wire 1 5 wr5 $end
$var wire 1 6 wr4 $end
$var wire 1 7 wr3 $end
$var wire 1 8 wr2 $end
$var wire 1 9 wr1 $end
$var wire 1 : wr0 $end
$var wire 1 ; rst_n $end
$var wire 1 < request $end
$var wire 1 = rd7 $end
$var wire 1 > rd6 $end
$var wire 1 ? rd5 $end
$var wire 1 @ rd4 $end
$var wire 1 A rd3 $end
$var wire 1 B rd2 $end
$var wire 1 C rd1 $end
$var wire 1 D rd0 $end
$var wire 2 E idx [1:0] $end
$var wire 1 F empty7 $end
$var wire 1 G empty6 $end
$var wire 1 H empty5 $end
$var wire 1 I empty4 $end
$var wire 1 J empty3 $end
$var wire 1 K empty2 $end
$var wire 1 L empty1 $end
$var wire 1 M empty0 $end
$var wire 10 N data_outF3 [9:0] $end
$var wire 10 O data_outF2 [9:0] $end
$var wire 10 P data_outF1 [9:0] $end
$var wire 10 Q data_outF0 [9:0] $end
$var wire 10 R data_outA3 [9:0] $end
$var wire 10 S data_outA2 [9:0] $end
$var wire 10 T data_outA1 [9:0] $end
$var wire 10 U data_outA0 [9:0] $end
$var wire 10 V data_in3 [9:0] $end
$var wire 10 W data_in2 [9:0] $end
$var wire 10 X data_in1 [9:0] $end
$var wire 10 Y data_in0 [9:0] $end
$var wire 1 Z clk $end
$scope module Fin0 $end
$var wire 1 : wr $end
$var wire 5 [ wptr [4:0] $end
$var wire 1 ; rst_n $end
$var wire 5 \ rptr [4:0] $end
$var wire 1 D rd $end
$var wire 1 ] fifo_we $end
$var wire 1 ^ fifo_underflow $end
$var wire 1 _ fifo_threshold $end
$var wire 1 ` fifo_rd $end
$var wire 1 a fifo_overflow $end
$var wire 1 b fifo_full $end
$var wire 1 M fifo_empty $end
$var wire 10 c data_out [9:0] $end
$var wire 10 d data_in [9:0] $end
$var wire 1 Z clk $end
$scope module memory $end
$var wire 10 e data_out [9:0] $end
$var wire 5 f wptr [4:0] $end
$var wire 5 g rptr [4:0] $end
$var wire 1 ] fifo_we $end
$var wire 10 h data_in [9:0] $end
$var wire 1 Z clk $end
$upscope $end
$scope module read $end
$var wire 1 ` fifo_rd $end
$var wire 1 ; rst_n $end
$var wire 1 D rd $end
$var wire 1 M fifo_empty $end
$var wire 1 Z clk $end
$var reg 5 i rptr [4:0] $end
$upscope $end
$scope module status $end
$var wire 1 j fbit_comp $end
$var wire 1 ` fifo_rd $end
$var wire 1 k overflow_set $end
$var wire 5 l rptr [4:0] $end
$var wire 1 m underflow_set $end
$var wire 1 : wr $end
$var wire 5 n wptr [4:0] $end
$var wire 1 ; rst_n $end
$var wire 1 D rd $end
$var wire 5 o pointer_result [4:0] $end
$var wire 1 p pointer_equal $end
$var wire 1 ] fifo_we $end
$var wire 1 Z clk $end
$var reg 1 M fifo_empty $end
$var reg 1 b fifo_full $end
$var reg 1 a fifo_overflow $end
$var reg 1 _ fifo_threshold $end
$var reg 1 ^ fifo_underflow $end
$upscope $end
$scope module writer $end
$var wire 1 b fifo_full $end
$var wire 1 ] fifo_we $end
$var wire 1 : wr $end
$var wire 1 ; rst_n $end
$var wire 1 Z clk $end
$var reg 5 q wptr [4:0] $end
$upscope $end
$upscope $end
$scope module Fin1 $end
$var wire 1 9 wr $end
$var wire 5 r wptr [4:0] $end
$var wire 1 ; rst_n $end
$var wire 5 s rptr [4:0] $end
$var wire 1 C rd $end
$var wire 1 t fifo_we $end
$var wire 1 u fifo_underflow $end
$var wire 1 v fifo_threshold $end
$var wire 1 w fifo_rd $end
$var wire 1 x fifo_overflow $end
$var wire 1 y fifo_full $end
$var wire 1 L fifo_empty $end
$var wire 10 z data_out [9:0] $end
$var wire 10 { data_in [9:0] $end
$var wire 1 Z clk $end
$scope module memory $end
$var wire 10 | data_out [9:0] $end
$var wire 5 } wptr [4:0] $end
$var wire 5 ~ rptr [4:0] $end
$var wire 1 t fifo_we $end
$var wire 10 !" data_in [9:0] $end
$var wire 1 Z clk $end
$upscope $end
$scope module read $end
$var wire 1 w fifo_rd $end
$var wire 1 ; rst_n $end
$var wire 1 C rd $end
$var wire 1 L fifo_empty $end
$var wire 1 Z clk $end
$var reg 5 "" rptr [4:0] $end
$upscope $end
$scope module status $end
$var wire 1 #" fbit_comp $end
$var wire 1 w fifo_rd $end
$var wire 1 $" overflow_set $end
$var wire 5 %" rptr [4:0] $end
$var wire 1 &" underflow_set $end
$var wire 1 9 wr $end
$var wire 5 '" wptr [4:0] $end
$var wire 1 ; rst_n $end
$var wire 1 C rd $end
$var wire 5 (" pointer_result [4:0] $end
$var wire 1 )" pointer_equal $end
$var wire 1 t fifo_we $end
$var wire 1 Z clk $end
$var reg 1 L fifo_empty $end
$var reg 1 y fifo_full $end
$var reg 1 x fifo_overflow $end
$var reg 1 v fifo_threshold $end
$var reg 1 u fifo_underflow $end
$upscope $end
$scope module writer $end
$var wire 1 y fifo_full $end
$var wire 1 t fifo_we $end
$var wire 1 9 wr $end
$var wire 1 ; rst_n $end
$var wire 1 Z clk $end
$var reg 5 *" wptr [4:0] $end
$upscope $end
$upscope $end
$scope module Fin2 $end
$var wire 1 8 wr $end
$var wire 5 +" wptr [4:0] $end
$var wire 1 ; rst_n $end
$var wire 5 ," rptr [4:0] $end
$var wire 1 B rd $end
$var wire 1 -" fifo_we $end
$var wire 1 ." fifo_underflow $end
$var wire 1 /" fifo_threshold $end
$var wire 1 0" fifo_rd $end
$var wire 1 1" fifo_overflow $end
$var wire 1 2" fifo_full $end
$var wire 1 K fifo_empty $end
$var wire 10 3" data_out [9:0] $end
$var wire 10 4" data_in [9:0] $end
$var wire 1 Z clk $end
$scope module memory $end
$var wire 10 5" data_out [9:0] $end
$var wire 5 6" wptr [4:0] $end
$var wire 5 7" rptr [4:0] $end
$var wire 1 -" fifo_we $end
$var wire 10 8" data_in [9:0] $end
$var wire 1 Z clk $end
$upscope $end
$scope module read $end
$var wire 1 0" fifo_rd $end
$var wire 1 ; rst_n $end
$var wire 1 B rd $end
$var wire 1 K fifo_empty $end
$var wire 1 Z clk $end
$var reg 5 9" rptr [4:0] $end
$upscope $end
$scope module status $end
$var wire 1 :" fbit_comp $end
$var wire 1 0" fifo_rd $end
$var wire 1 ;" overflow_set $end
$var wire 5 <" rptr [4:0] $end
$var wire 1 =" underflow_set $end
$var wire 1 8 wr $end
$var wire 5 >" wptr [4:0] $end
$var wire 1 ; rst_n $end
$var wire 1 B rd $end
$var wire 5 ?" pointer_result [4:0] $end
$var wire 1 @" pointer_equal $end
$var wire 1 -" fifo_we $end
$var wire 1 Z clk $end
$var reg 1 K fifo_empty $end
$var reg 1 2" fifo_full $end
$var reg 1 1" fifo_overflow $end
$var reg 1 /" fifo_threshold $end
$var reg 1 ." fifo_underflow $end
$upscope $end
$scope module writer $end
$var wire 1 2" fifo_full $end
$var wire 1 -" fifo_we $end
$var wire 1 8 wr $end
$var wire 1 ; rst_n $end
$var wire 1 Z clk $end
$var reg 5 A" wptr [4:0] $end
$upscope $end
$upscope $end
$scope module Fin3 $end
$var wire 1 7 wr $end
$var wire 5 B" wptr [4:0] $end
$var wire 1 ; rst_n $end
$var wire 5 C" rptr [4:0] $end
$var wire 1 A rd $end
$var wire 1 D" fifo_we $end
$var wire 1 E" fifo_underflow $end
$var wire 1 F" fifo_threshold $end
$var wire 1 G" fifo_rd $end
$var wire 1 H" fifo_overflow $end
$var wire 1 I" fifo_full $end
$var wire 1 J fifo_empty $end
$var wire 10 J" data_out [9:0] $end
$var wire 10 K" data_in [9:0] $end
$var wire 1 Z clk $end
$scope module memory $end
$var wire 10 L" data_out [9:0] $end
$var wire 5 M" wptr [4:0] $end
$var wire 5 N" rptr [4:0] $end
$var wire 1 D" fifo_we $end
$var wire 10 O" data_in [9:0] $end
$var wire 1 Z clk $end
$upscope $end
$scope module read $end
$var wire 1 G" fifo_rd $end
$var wire 1 ; rst_n $end
$var wire 1 A rd $end
$var wire 1 J fifo_empty $end
$var wire 1 Z clk $end
$var reg 5 P" rptr [4:0] $end
$upscope $end
$scope module status $end
$var wire 1 Q" fbit_comp $end
$var wire 1 G" fifo_rd $end
$var wire 1 R" overflow_set $end
$var wire 5 S" rptr [4:0] $end
$var wire 1 T" underflow_set $end
$var wire 1 7 wr $end
$var wire 5 U" wptr [4:0] $end
$var wire 1 ; rst_n $end
$var wire 1 A rd $end
$var wire 5 V" pointer_result [4:0] $end
$var wire 1 W" pointer_equal $end
$var wire 1 D" fifo_we $end
$var wire 1 Z clk $end
$var reg 1 J fifo_empty $end
$var reg 1 I" fifo_full $end
$var reg 1 H" fifo_overflow $end
$var reg 1 F" fifo_threshold $end
$var reg 1 E" fifo_underflow $end
$upscope $end
$scope module writer $end
$var wire 1 I" fifo_full $end
$var wire 1 D" fifo_we $end
$var wire 1 7 wr $end
$var wire 1 ; rst_n $end
$var wire 1 Z clk $end
$var reg 5 X" wptr [4:0] $end
$upscope $end
$upscope $end
$scope module Fout0 $end
$var wire 1 6 wr $end
$var wire 5 Y" wptr [4:0] $end
$var wire 1 ; rst_n $end
$var wire 5 Z" rptr [4:0] $end
$var wire 1 @ rd $end
$var wire 1 [" fifo_we $end
$var wire 1 \" fifo_underflow $end
$var wire 1 ]" fifo_threshold $end
$var wire 1 ^" fifo_rd $end
$var wire 1 _" fifo_overflow $end
$var wire 1 `" fifo_full $end
$var wire 1 I fifo_empty $end
$var wire 10 a" data_out [9:0] $end
$var wire 10 b" data_in [9:0] $end
$var wire 1 Z clk $end
$scope module memory $end
$var wire 10 c" data_out [9:0] $end
$var wire 5 d" wptr [4:0] $end
$var wire 5 e" rptr [4:0] $end
$var wire 1 [" fifo_we $end
$var wire 10 f" data_in [9:0] $end
$var wire 1 Z clk $end
$upscope $end
$scope module read $end
$var wire 1 ^" fifo_rd $end
$var wire 1 ; rst_n $end
$var wire 1 @ rd $end
$var wire 1 I fifo_empty $end
$var wire 1 Z clk $end
$var reg 5 g" rptr [4:0] $end
$upscope $end
$scope module status $end
$var wire 1 h" fbit_comp $end
$var wire 1 ^" fifo_rd $end
$var wire 1 i" overflow_set $end
$var wire 5 j" rptr [4:0] $end
$var wire 1 k" underflow_set $end
$var wire 1 6 wr $end
$var wire 5 l" wptr [4:0] $end
$var wire 1 ; rst_n $end
$var wire 1 @ rd $end
$var wire 5 m" pointer_result [4:0] $end
$var wire 1 n" pointer_equal $end
$var wire 1 [" fifo_we $end
$var wire 1 Z clk $end
$var reg 1 I fifo_empty $end
$var reg 1 `" fifo_full $end
$var reg 1 _" fifo_overflow $end
$var reg 1 ]" fifo_threshold $end
$var reg 1 \" fifo_underflow $end
$upscope $end
$scope module writer $end
$var wire 1 `" fifo_full $end
$var wire 1 [" fifo_we $end
$var wire 1 6 wr $end
$var wire 1 ; rst_n $end
$var wire 1 Z clk $end
$var reg 5 o" wptr [4:0] $end
$upscope $end
$upscope $end
$scope module Fout1 $end
$var wire 1 5 wr $end
$var wire 5 p" wptr [4:0] $end
$var wire 1 ; rst_n $end
$var wire 5 q" rptr [4:0] $end
$var wire 1 ? rd $end
$var wire 1 r" fifo_we $end
$var wire 1 s" fifo_underflow $end
$var wire 1 t" fifo_threshold $end
$var wire 1 u" fifo_rd $end
$var wire 1 v" fifo_overflow $end
$var wire 1 w" fifo_full $end
$var wire 1 H fifo_empty $end
$var wire 10 x" data_out [9:0] $end
$var wire 10 y" data_in [9:0] $end
$var wire 1 Z clk $end
$scope module memory $end
$var wire 10 z" data_out [9:0] $end
$var wire 5 {" wptr [4:0] $end
$var wire 5 |" rptr [4:0] $end
$var wire 1 r" fifo_we $end
$var wire 10 }" data_in [9:0] $end
$var wire 1 Z clk $end
$upscope $end
$scope module read $end
$var wire 1 u" fifo_rd $end
$var wire 1 ; rst_n $end
$var wire 1 ? rd $end
$var wire 1 H fifo_empty $end
$var wire 1 Z clk $end
$var reg 5 ~" rptr [4:0] $end
$upscope $end
$scope module status $end
$var wire 1 !# fbit_comp $end
$var wire 1 u" fifo_rd $end
$var wire 1 "# overflow_set $end
$var wire 5 ## rptr [4:0] $end
$var wire 1 $# underflow_set $end
$var wire 1 5 wr $end
$var wire 5 %# wptr [4:0] $end
$var wire 1 ; rst_n $end
$var wire 1 ? rd $end
$var wire 5 &# pointer_result [4:0] $end
$var wire 1 '# pointer_equal $end
$var wire 1 r" fifo_we $end
$var wire 1 Z clk $end
$var reg 1 H fifo_empty $end
$var reg 1 w" fifo_full $end
$var reg 1 v" fifo_overflow $end
$var reg 1 t" fifo_threshold $end
$var reg 1 s" fifo_underflow $end
$upscope $end
$scope module writer $end
$var wire 1 w" fifo_full $end
$var wire 1 r" fifo_we $end
$var wire 1 5 wr $end
$var wire 1 ; rst_n $end
$var wire 1 Z clk $end
$var reg 5 (# wptr [4:0] $end
$upscope $end
$upscope $end
$scope module Fout2 $end
$var wire 1 4 wr $end
$var wire 5 )# wptr [4:0] $end
$var wire 1 ; rst_n $end
$var wire 5 *# rptr [4:0] $end
$var wire 1 > rd $end
$var wire 1 +# fifo_we $end
$var wire 1 ,# fifo_underflow $end
$var wire 1 -# fifo_threshold $end
$var wire 1 .# fifo_rd $end
$var wire 1 /# fifo_overflow $end
$var wire 1 0# fifo_full $end
$var wire 1 G fifo_empty $end
$var wire 10 1# data_out [9:0] $end
$var wire 10 2# data_in [9:0] $end
$var wire 1 Z clk $end
$scope module memory $end
$var wire 10 3# data_out [9:0] $end
$var wire 5 4# wptr [4:0] $end
$var wire 5 5# rptr [4:0] $end
$var wire 1 +# fifo_we $end
$var wire 10 6# data_in [9:0] $end
$var wire 1 Z clk $end
$upscope $end
$scope module read $end
$var wire 1 .# fifo_rd $end
$var wire 1 ; rst_n $end
$var wire 1 > rd $end
$var wire 1 G fifo_empty $end
$var wire 1 Z clk $end
$var reg 5 7# rptr [4:0] $end
$upscope $end
$scope module status $end
$var wire 1 8# fbit_comp $end
$var wire 1 .# fifo_rd $end
$var wire 1 9# overflow_set $end
$var wire 5 :# rptr [4:0] $end
$var wire 1 ;# underflow_set $end
$var wire 1 4 wr $end
$var wire 5 <# wptr [4:0] $end
$var wire 1 ; rst_n $end
$var wire 1 > rd $end
$var wire 5 =# pointer_result [4:0] $end
$var wire 1 ># pointer_equal $end
$var wire 1 +# fifo_we $end
$var wire 1 Z clk $end
$var reg 1 G fifo_empty $end
$var reg 1 0# fifo_full $end
$var reg 1 /# fifo_overflow $end
$var reg 1 -# fifo_threshold $end
$var reg 1 ,# fifo_underflow $end
$upscope $end
$scope module writer $end
$var wire 1 0# fifo_full $end
$var wire 1 +# fifo_we $end
$var wire 1 4 wr $end
$var wire 1 ; rst_n $end
$var wire 1 Z clk $end
$var reg 5 ?# wptr [4:0] $end
$upscope $end
$upscope $end
$scope module Fout3 $end
$var wire 1 3 wr $end
$var wire 5 @# wptr [4:0] $end
$var wire 1 ; rst_n $end
$var wire 5 A# rptr [4:0] $end
$var wire 1 = rd $end
$var wire 1 B# fifo_we $end
$var wire 1 C# fifo_underflow $end
$var wire 1 D# fifo_threshold $end
$var wire 1 E# fifo_rd $end
$var wire 1 F# fifo_overflow $end
$var wire 1 G# fifo_full $end
$var wire 1 F fifo_empty $end
$var wire 10 H# data_out [9:0] $end
$var wire 10 I# data_in [9:0] $end
$var wire 1 Z clk $end
$scope module memory $end
$var wire 10 J# data_out [9:0] $end
$var wire 5 K# wptr [4:0] $end
$var wire 5 L# rptr [4:0] $end
$var wire 1 B# fifo_we $end
$var wire 10 M# data_in [9:0] $end
$var wire 1 Z clk $end
$upscope $end
$scope module read $end
$var wire 1 E# fifo_rd $end
$var wire 1 ; rst_n $end
$var wire 1 = rd $end
$var wire 1 F fifo_empty $end
$var wire 1 Z clk $end
$var reg 5 N# rptr [4:0] $end
$upscope $end
$scope module status $end
$var wire 1 O# fbit_comp $end
$var wire 1 E# fifo_rd $end
$var wire 1 P# overflow_set $end
$var wire 5 Q# rptr [4:0] $end
$var wire 1 R# underflow_set $end
$var wire 1 3 wr $end
$var wire 5 S# wptr [4:0] $end
$var wire 1 ; rst_n $end
$var wire 1 = rd $end
$var wire 5 T# pointer_result [4:0] $end
$var wire 1 U# pointer_equal $end
$var wire 1 B# fifo_we $end
$var wire 1 Z clk $end
$var reg 1 F fifo_empty $end
$var reg 1 G# fifo_full $end
$var reg 1 F# fifo_overflow $end
$var reg 1 D# fifo_threshold $end
$var reg 1 C# fifo_underflow $end
$upscope $end
$scope module writer $end
$var wire 1 G# fifo_full $end
$var wire 1 B# fifo_we $end
$var wire 1 3 wr $end
$var wire 1 ; rst_n $end
$var wire 1 Z clk $end
$var reg 5 V# wptr [4:0] $end
$upscope $end
$upscope $end
$scope module arbiter $end
$var wire 10 W# data_in0 [9:0] $end
$var wire 10 X# data_in1 [9:0] $end
$var wire 10 Y# data_in2 [9:0] $end
$var wire 10 Z# data_in3 [9:0] $end
$var wire 1 M empty0 $end
$var wire 1 L empty1 $end
$var wire 1 K empty2 $end
$var wire 1 J empty3 $end
$var wire 1 ; reset_L $end
$var wire 1 Z clk $end
$var reg 10 [# data_out0 [9:0] $end
$var reg 10 \# data_out1 [9:0] $end
$var reg 10 ]# data_out2 [9:0] $end
$var reg 10 ^# data_out3 [9:0] $end
$var reg 2 _# posicion [1:0] $end
$var reg 1 D rd0 $end
$var reg 1 C rd1 $end
$var reg 1 B rd2 $end
$var reg 1 A rd3 $end
$var reg 1 6 wr4 $end
$var reg 1 5 wr5 $end
$var reg 1 4 wr6 $end
$var reg 1 3 wr7 $end
$upscope $end
$scope module counter $end
$var wire 1 I empty0 $end
$var wire 1 H empty1 $end
$var wire 1 G empty2 $end
$var wire 1 F empty3 $end
$var wire 1 ; reset_L $end
$var wire 1 < request $end
$var wire 2 `# idx [1:0] $end
$var wire 1 Z clk $end
$var reg 6 a# contador0 [5:0] $end
$var reg 6 b# contador1 [5:0] $end
$var reg 6 c# contador2 [5:0] $end
$var reg 6 d# contador3 [5:0] $end
$var reg 6 e# contador_out [5:0] $end
$var reg 1 @ pop0 $end
$var reg 1 ? pop1 $end
$var reg 1 > pop2 $end
$var reg 1 = pop3 $end
$var reg 1 f# valid $end
$upscope $end
$scope module probador $end
$var reg 1 Z clk $end
$var reg 10 g# data_in0 [9:0] $end
$var reg 10 h# data_in1 [9:0] $end
$var reg 10 i# data_in2 [9:0] $end
$var reg 10 j# data_in3 [9:0] $end
$var reg 2 k# idx [1:0] $end
$var reg 1 < request $end
$var reg 1 ; rst_n $end
$var reg 1 : wr0 $end
$var reg 1 9 wr1 $end
$var reg 1 8 wr2 $end
$var reg 1 7 wr3 $end
$var integer 32 l# i [31:0] $end
$scope task clock_generator $end
$upscope $end
$scope task debug_fifo $end
$upscope $end
$scope task endsimulation $end
$upscope $end
$scope task main $end
$upscope $end
$scope task operation_process $end
$scope begin WRE0 $end
$upscope $end
$scope begin WRE1 $end
$upscope $end
$scope begin WRE2 $end
$upscope $end
$scope begin WRE3 $end
$upscope $end
$upscope $end
$scope task reset_generator $end
$upscope $end
$upscope $end
$upscope $end
$enddefinitions $end
#0
$dumpvars
b0 l#
b0 k#
b0 j#
b0 i#
b0 h#
b0 g#
xf#
bx e#
bx d#
bx c#
bx b#
bx a#
b0 `#
bx _#
bx ^#
bx ]#
bx \#
bx [#
bx Z#
bx Y#
bx X#
bx W#
bx V#
xU#
bx T#
bx S#
xR#
bx Q#
xP#
xO#
bx N#
bx M#
bx L#
bx K#
bx J#
bx I#
bx H#
xG#
xF#
xE#
xD#
xC#
xB#
bx A#
bx @#
bx ?#
x>#
bx =#
bx <#
x;#
bx :#
x9#
x8#
bx 7#
bx 6#
bx 5#
bx 4#
bx 3#
bx 2#
bx 1#
x0#
x/#
x.#
x-#
x,#
x+#
bx *#
bx )#
bx (#
x'#
bx &#
bx %#
x$#
bx ##
x"#
x!#
bx ~"
bx }"
bx |"
bx {"
bx z"
bx y"
bx x"
xw"
xv"
xu"
xt"
xs"
xr"
bx q"
bx p"
bx o"
xn"
bx m"
bx l"
xk"
bx j"
xi"
xh"
bx g"
bx f"
bx e"
bx d"
bx c"
bx b"
bx a"
x`"
x_"
x^"
x]"
x\"
x["
bx Z"
bx Y"
bx X"
xW"
bx V"
bx U"
xT"
bx S"
0R"
xQ"
bx P"
b0 O"
bx N"
bx M"
bx L"
b0 K"
bx J"
xI"
xH"
xG"
xF"
xE"
0D"
bx C"
bx B"
bx A"
x@"
bx ?"
bx >"
x="
bx <"
0;"
x:"
bx 9"
b0 8"
bx 7"
bx 6"
bx 5"
b0 4"
bx 3"
x2"
x1"
x0"
x/"
x."
0-"
bx ,"
bx +"
bx *"
x)"
bx ("
bx '"
x&"
bx %"
0$"
x#"
bx ""
b0 !"
bx ~
bx }
bx |
b0 {
bx z
xy
xx
xw
xv
xu
0t
bx s
bx r
bx q
xp
bx o
bx n
xm
bx l
0k
xj
bx i
b0 h
bx g
bx f
bx e
b0 d
bx c
xb
xa
x`
x_
x^
0]
bx \
bx [
0Z
b0 Y
b0 X
b0 W
b0 V
bx U
bx T
bx S
bx R
bx Q
bx P
bx O
bx N
xM
xL
xK
xJ
xI
xH
xG
xF
b0 E
xD
xC
xB
xA
x@
x?
x>
x=
0<
0;
0:
09
08
07
x6
x5
x4
x3
z2
z1
x0
z/
z.
x-
z,
z+
x*
z)
z(
z'
z&
x%
z$
z#
z"
z!
$end
#1000000000000
0^"
0u"
0.#
0E#
1M
1L
1K
1J
1I
1H
1G
1F
1p
0b
1)"
0y
1@"
02"
1W"
0I"
1n"
0`"
1'#
0w"
1>#
00#
1U#
0G#
0j
0#"
0:"
0Q"
0h"
0!#
08#
0O#
0B#
0P#
0+#
09#
0r"
0"#
0["
0i"
0T"
0G"
0="
00"
0&"
0w
0m
0`
0_
0v
0/"
0F"
0]"
0t"
0-#
0D#
b0 _#
03
04
05
06
0A
0B
0C
0D
b0 N
b0 I#
b0 M#
b0 ^#
b0 O
b0 2#
b0 6#
b0 ]#
b0 P
b0 y"
b0 }"
b0 \#
b0 Q
b0 b"
b0 f"
b0 [#
b0 o
b0 [
b0 f
b0 n
b0 q
b0 \
b0 g
b0 i
b0 l
0a
0^
b0 ("
b0 r
b0 }
b0 '"
b0 *"
b0 s
b0 ~
b0 ""
b0 %"
0x
0u
b0 ?"
b0 +"
b0 6"
b0 >"
b0 A"
b0 ,"
b0 7"
b0 9"
b0 <"
01"
0."
b0 V"
b0 B"
b0 M"
b0 U"
b0 X"
b0 C"
b0 N"
b0 P"
b0 S"
0H"
0E"
b0 m"
b0 Y"
b0 d"
b0 l"
b0 o"
b0 Z"
b0 e"
b0 g"
b0 j"
0_"
0\"
b0 &#
b0 p"
b0 {"
b0 %#
b0 (#
b0 q"
b0 |"
b0 ~"
b0 ##
0v"
0s"
b0 =#
b0 )#
b0 4#
b0 <#
b0 ?#
b0 *#
b0 5#
b0 7#
b0 :#
0/#
0,#
b0 T#
b0 @#
b0 K#
b0 S#
b0 V#
b0 A#
b0 L#
b0 N#
b0 Q#
0F#
0C#
b0 e#
b0 d#
b0 c#
b0 b#
b0 a#
0f#
1Z
#2000000000000
0R#
0;#
0$#
0k"
0=
0>
0?
0@
0Z
1;
#2800000000000
0;
#3000000000000
1Z
#3500000000000
1;
#4000000000000
0Z
#5000000000000
0M
0p
b100000001 U
b100000001 c
b100000001 e
b100000001 W#
b1 o
b1 [
b1 f
b1 n
b1 q
1]
1Z
b100000001 Y
b100000001 d
b100000001 h
b100000001 g#
1:
#6000000000000
0Z
#7000000000000
1r"
1`
15
b100000001 P
b100000001 y"
b100000001 }"
b100000001 \#
1D
b1 _#
0]
1Z
b1 l#
0:
#8000000000000
0Z
#9000000000000
0H
1M
0'#
1p
bx U
bx c
bx e
bx W#
0`
b100000001 x"
b100000001 z"
b1 &#
b1 p"
b1 {"
b1 %#
b1 (#
b0 o
b1 \
b1 g
b1 i
b1 l
15
0D
1Z
#10000000000000
0Z
#11000000000000
0r"
1u"
05
b10 &#
b10 p"
b10 {"
b10 %#
b10 (#
b1 b#
1?
1Z
#12000000000000
1]
0Z
b1000000010 Y
b1000000010 d
b1000000010 h
b1000000010 g#
1:
#13000000000000
0M
0p
b1000000010 U
b1000000010 c
b1000000010 e
b1000000010 W#
b1 &#
b1 q"
b1 |"
b1 ~"
b1 ##
b1 o
b10 [
b10 f
b10 n
b10 q
b10 b#
1?
1Z
#14000000000000
0]
0Z
b10 l#
0:
#15000000000000
0u"
1$#
1H
1'#
1+#
1`
bx x"
bx z"
14
b1000000010 O
b1000000010 2#
b1000000010 6#
b1000000010 ]#
1D
b10 _#
b0 &#
b10 q"
b10 |"
b10 ~"
b10 ##
b11 b#
1?
1Z
#16000000000000
0Z
#17000000000000
0G
1M
0>#
1p
bx U
bx c
bx e
bx W#
0`
0$#
b1000000010 1#
b1000000010 3#
b1 =#
b1 )#
b1 4#
b1 <#
b1 ?#
1s"
b0 o
b10 \
b10 g
b10 i
b10 l
14
0D
0?
1Z
#18000000000000
0Z
#19000000000000
0M
0p
0+#
1.#
b1100000011 U
b1100000011 c
b1100000011 e
b1100000011 W#
04
b1 o
b11 [
b11 f
b11 n
b11 q
b10 =#
b10 )#
b10 4#
b10 <#
b10 ?#
b1 c#
1>
1]
1Z
b1100000011 Y
b1100000011 d
b1100000011 h
b1100000011 g#
1:
#20000000000000
0Z
#21000000000000
1B#
1`
b1 =#
b1 *#
b1 5#
b1 7#
b1 :#
13
b1100000011 N
b1100000011 I#
b1100000011 M#
b1100000011 ^#
1D
b11 _#
b10 c#
1>
0]
1Z
b11 l#
0:
#22000000000000
0Z
#23000000000000
0.#
1;#
1M
1G
0F
1p
1>#
0U#
0`
bx U
bx c
bx e
bx W#
bx 1#
bx 3#
b1100000011 H#
b1100000011 J#
13
0D
b0 o
b11 \
b11 g
b11 i
b11 l
b0 =#
b10 *#
b10 5#
b10 7#
b10 :#
b1 T#
b1 @#
b1 K#
b1 S#
b1 V#
b11 c#
1>
1Z
#24000000000000
0Z
#25000000000000
0B#
1E#
0;#
b10 T#
b10 @#
b10 K#
b10 S#
b10 V#
1,#
03
b1 d#
1=
0>
1Z
#26000000000000
1]
0Z
b100 Y
b100 d
b100 h
b100 g#
1:
#27000000000000
0M
0p
b100 U
b100 c
b100 e
b100 W#
b1 o
b100 [
b100 f
b100 n
b100 q
b1 T#
b1 A#
b1 L#
b1 N#
b1 Q#
b10 d#
1=
1Z
#28000000000000
0]
0Z
b100 l#
0:
#29000000000000
0E#
1R#
1F
1U#
bx H#
bx J#
1["
1`
b0 T#
b10 A#
b10 L#
b10 N#
b10 Q#
16
b100 Q
b100 b"
b100 f"
b100 [#
1D
b0 _#
b11 d#
1=
1Z
#30000000000000
0Z
#31000000000000
1M
0I
1p
0n"
0`
bx U
bx c
bx e
bx W#
0R#
b100 a"
b100 c"
16
0D
b0 o
b100 \
b100 g
b100 i
b100 l
b1 m"
b1 Y"
b1 d"
b1 l"
b1 o"
1C#
0=
1Z
#32000000000000
0Z
#33000000000000
0M
0p
0["
1^"
b100000101 U
b100000101 c
b100000101 e
b100000101 W#
b10 m"
b10 Y"
b10 d"
b10 l"
b10 o"
b1 o
b101 [
b101 f
b101 n
b101 q
06
b1 a#
1@
1]
1Z
b100000101 Y
b100000101 d
b100000101 h
b100000101 g#
1:
#34000000000000
0Z
#35000000000000
1r"
1`
15
b100000101 P
b100000101 y"
b100000101 }"
b100000101 \#
1D
b1 _#
b1 m"
b1 Z"
b1 e"
b1 g"
b1 j"
b10 a#
1@
0]
1Z
b101 l#
0:
#36000000000000
0Z
#37000000000000
0^"
1k"
0H
1I
1M
0'#
1n"
1p
bx a"
bx c"
bx U
bx c
bx e
bx W#
0`
b100000101 x"
b100000101 z"
0s"
b1 &#
b11 p"
b11 {"
b11 %#
b11 (#
b0 m"
b10 Z"
b10 e"
b10 g"
b10 j"
b0 o
b101 \
b101 g
b101 i
b101 l
15
0D
b11 a#
1@
1Z
#38000000000000
0Z
#39000000000000
0r"
1u"
0k"
05
1\"
b10 &#
b100 p"
b100 {"
b100 %#
b100 (#
b100 b#
1?
0@
1Z
#40000000000000
1]
0Z
b1000000110 Y
b1000000110 d
b1000000110 h
b1000000110 g#
1:
#41000000000000
0M
0p
b1000000110 U
b1000000110 c
b1000000110 e
b1000000110 W#
b1 &#
b11 q"
b11 |"
b11 ~"
b11 ##
b1 o
b110 [
b110 f
b110 n
b110 q
b101 b#
1?
1Z
#42000000000000
0]
0Z
b110 l#
0:
#43000000000000
0u"
1$#
1H
1'#
1+#
1`
bx x"
bx z"
14
b1000000110 O
b1000000110 2#
b1000000110 6#
b1000000110 ]#
1D
b10 _#
b0 &#
b100 q"
b100 |"
b100 ~"
b100 ##
b110 b#
1?
1Z
#44000000000000
0Z
